Biostat 203B Homework 2
…
For each subject_id, let’s only keep the first ICU stay in the tibble icustays_tble. (Hint: slice_min and slice_max may take long. Think alternative ways to achieve the same function.)

icustays_tble <- icustays_tble %>%
  group_by(subject_id) %>%
  arrange(intime, .by_group = TRUE) %>%
  slice_head(n=1)%>%
  ungroup()%>%
  print(width = Inf)

# A tibble: 53,150 × 8
   subject_id  hadm_id  stay_id first_careunit                                  
        <dbl>    <dbl>    <dbl> <chr>                                           
 1   10000032 29079034 39553978 Medical Intensive Care Unit (MICU)              
 2   10000980 26913865 39765666 Medical Intensive Care Unit (MICU)              
 3   10001217 24597018 37067082 Surgical Intensive Care Unit (SICU)             
 4   10001725 25563031 31205490 Medical/Surgical Intensive Care Unit (MICU/SICU)
 5   10001884 26184834 37510196 Medical Intensive Care Unit (MICU)              
 6   10002013 23581541 39060235 Cardiac Vascular Intensive Care Unit (CVICU)    
 7   10002155 23822395 33685454 Coronary Care Unit (CCU)                        
 8   10002223 22494570 39638202 Trauma SICU (TSICU)                             
 9   10002348 22725460 32610785 Neuro Intermediate                              
10   10002428 28662225 33987268 Medical Intensive Care Unit (MICU)              
   last_careunit                                    intime             
   <chr>                                            <dttm>             
 1 Medical Intensive Care Unit (MICU)               2180-07-23 14:00:00
 2 Medical Intensive Care Unit (MICU)               2189-06-27 08:42:00
 3 Surgical Intensive Care Unit (SICU)              2157-11-20 19:18:02
 4 Medical/Surgical Intensive Care Unit (MICU/SICU) 2110-04-11 15:52:22
 5 Medical Intensive Care Unit (MICU)               2131-01-11 04:20:05
 6 Cardiac Vascular Intensive Care Unit (CVICU)     2160-05-18 10:00:53
 7 Coronary Care Unit (CCU)                         2129-08-04 12:45:00
 8 Trauma SICU (TSICU)                              2158-01-15 08:01:49
 9 Neuro Intermediate                               2112-11-30 23:24:00
10 Medical Intensive Care Unit (MICU)               2156-04-12 16:24:18
   outtime               los
   <dttm>              <dbl>
 1 2180-07-23 23:50:47 0.410
 2 2189-06-27 20:38:27 0.498
 3 2157-11-21 22:08:00 1.12 
 4 2110-04-12 23:59:56 1.34 
 5 2131-01-20 08:27:30 9.17 
 6 2160-05-19 17:33:33 1.31 
 7 2129-08-10 17:02:38 6.18 
 8 2158-01-16 15:19:24 1.30 
 9 2112-12-10 18:25:13 9.79 
10 2156-04-17 15:57:08 4.98 
# … with 53,140 more rows
…
Import admissions.csv.gz as a tibble admissions_tble.

admin<-(read_csv(str_c(mimic_path, "/core/admissions.csv.gz")))
admissions_tble <- as.tibble(admin)

Let’s only keep the admissions that have a match in icustays_tble according to subject_id and hadmi_id.

# admissions_tble <-admissions_tble%>%
#   semi_join(icustays_tble, by=c('subject_id','hadmi_id'))%>%
#   print(width=Inf)
semi_join(x = admissions_tble, y = icustays_tble, by = c("subject_id", "hadm_id"))

# A tibble: 53,150 × 15
   subject…¹ hadm_id admittime           dischtime           deathtime          
       <dbl>   <dbl> <dttm>              <dttm>              <dttm>             
 1  10222255  2.82e7 2120-11-20 20:25:00 2120-11-22 13:00:00 NA                 
 2  14485852  2.87e7 2113-10-31 00:23:00 2113-11-04 16:50:00 NA                 
 3  18709254  2.38e7 2195-10-12 01:31:00 2195-10-12 13:51:00 NA                 
 4  16837807  2.35e7 2151-03-19 06:09:00 2151-03-19 07:20:00 2151-03-19 07:20:00
 5  17642680  2.77e7 2116-05-29 12:48:00 2116-05-30 12:31:00 NA                 
 6  18230965  2.13e7 2142-03-12 20:00:00 2142-03-17 15:26:00 NA                 
 7  17374121  2.77e7 2115-07-22 07:15:00 2115-07-24 17:50:00 NA                 
 8  13346506  2.85e7 2181-11-19 14:32:00 2181-11-22 18:47:00 NA                 
 9  18030332  2.47e7 2152-07-22 21:28:00 2152-07-27 16:49:00 NA                 
10  14328744  2.96e7 2126-08-20 09:26:00 2126-08-21 11:36:00 NA                 
# … with 53,140 more rows, 10 more variables: admission_type <chr>,
#   admission_location <chr>, discharge_location <chr>, insurance <chr>,
#   language <chr>, marital_status <chr>, ethnicity <chr>, edregtime <dttm>,
#   edouttime <dttm>, hospital_expire_flag <dbl>, and abbreviated variable name
#   ¹​subject_id
…
Import patients.csv.gz (https://mimic.mit.edu/docs/iv/modules/core/patients/) as a tibble patients_tble and only keep the patients who have a match in icustays_tble (according to subject_id).

patients_tble<-
  read_csv(str_c(mimic_path, "/core/patients.csv.gz")) %>%
  semi_join (icustays_tble, by= "subject_id") %>%
  print (width=Inf)

# A tibble: 53,150 × 6
   subject_id gender anchor_age anchor_year anchor_year_group dod       
        <dbl> <chr>       <dbl>       <dbl> <chr>             <date>    
 1   10018928 F              31        2125 2008 - 2010       NA        
 2   10076543 F              78        2187 2008 - 2010       NA        
 3   10098428 F              85        2119 2008 - 2010       NA        
 4   10127185 M              60        2141 2008 - 2010       NA        
 5   10148710 M              67        2137 2008 - 2010       NA        
 6   10156486 F              75        2124 2017 - 2019       NA        
 7   10159585 M              59        2146 2008 - 2010       2154-04-16
 8   10171525 F              27        2115 2014 - 2016       NA        
 9   10196360 M              57        2118 2011 - 2013       NA        
10   10227823 M              45        2156 2014 - 2016       NA        
# … with 53,140 more rows
…
    labevents_tble<-
      read_csv(str_c(mimic_path, "/hosp/labevents_filtered_itemid.csv.gz"), 
               col_select = c(subject_id,itemid,charttime,valuenum),
               col_types = cols_only(subject_id=col_double(),
                                     itemid=col_double(),
                                     charttime=col_datetime(),
                                     valuenum=col_double())
               )%>%
      semi_join(icustays_tble,by=c("subject_id"))%>%
      filter(itemid %in% dlabitems_tble$itemid)%>%
      print(width=Inf)

# A tibble: 13,926,853 × 4
   subject_id itemid charttime           valuenum
        <dbl>  <dbl> <dttm>                 <dbl>
 1   10003700  50882 2162-11-15 17:00:00     27  
 2   10003700  50902 2162-11-15 17:00:00    103  
 3   10003700  50912 2162-11-15 17:00:00      1  
 4   10003700  50931 2162-11-15 17:00:00     93  
 5   10003700  50971 2162-11-15 17:00:00      4.1
 6   10003700  50983 2162-11-15 17:00:00    141  
 7   10003700  51221 2162-11-15 17:00:00     40  
 8   10003700  51301 2162-11-15 17:00:00      6.7
 9   10003700  51221 2165-04-24 03:40:00     41  
10   10003700  51301 2165-04-24 03:40:00      5.8
# … with 13,926,843 more rows
…
       group_by(subject_id, itemid) %>%
      arrange (charttime, .by_group= TRUE) %>%
       slice_head(n=1) %>%
       ungroup() %>%
      # important to take out before pivot_wider or else multiple rows for an itemid woll be produced
       select(-intime,-outtime,-charttime) %>%
       pivot_wider(names_from = itemid, values_from=valuenum) %>%
      rename_at(
        vars(as.character(dlabitems_tble$itemid)),
             ~str_to_lower(dlabitems_tble$label)
      ) %>%
      rename(WBC="white blood cells") %>%
       print (width=Inf) 

# A tibble: 51,618 × 9
   subject_id bicarbonate chloride creatinine glucose potassium sodium
        <dbl>       <dbl>    <dbl>      <dbl>   <dbl>     <dbl>  <dbl>
 1   10000032          21      102        0.5     115       4.7    132
 2   10001217          23      104        0.4     113       3.6    138
 3   10001725          24      106        0.8     146       3.9    140
 4   10001884          33       96        1.1     148       4      136
 5   10002013          23      109        1.1      98       4      140
 6   10002155          25      106        0.9      95       4.5    139
 7   10002223          26      102        0.8      88       3.9    138
 8   10002348          23      107        0.8     127       4.8    142
 9   10002428          20       98        0.8      99       3.9    129
10   10002430          22      105        2.2     128       3.8    144
   hematocrit   WBC
        <dbl> <dbl>
 1       NA    NA  
 2       33.6  19  
 3       39.1  17  
 4       36    18.4
 5       28.6  18.2
 6       37.9   5.5
 7       32.5  10.1
 8       39.3   4.3
 9       28.7  22.4
10       36.6  10.3
# … with 51,608 more rows
…
chartevents_tble<-
      read_csv(str_c(mimic_path, "/icu/chartevents_filtered_itemid.csv.gz"), 
               col_select = c(subject_id,itemid,charttime,valuenum),
               col_types = cols_only(subject_id=col_double(),
                                     itemid=col_double(),
                                     charttime=col_datetime(),
                                     valuenum=col_double())
               )%>%
      semi_join(icustays_tble,by=c("subject_id"))%>%
      filter(itemid %in% chart_tble$itemid)%>%
      print(width=Inf)

# A tibble: 23,679,058 × 4
   subject_id itemid charttime           valuenum
        <dbl>  <dbl> <dttm>                 <dbl>
 1   10003700 220179 2165-04-24 05:28:00    152  
 2   10003700 220181 2165-04-24 05:28:00    110  
 3   10003700 220045 2165-04-24 05:30:00     65  
 4   10003700 220210 2165-04-24 05:30:00     14  
 5   10003700 223761 2165-04-24 05:38:00     97.6
 6   10003700 220045 2165-04-24 06:00:00     56  
 7   10003700 220179 2165-04-24 06:00:00    126  
 8   10003700 220181 2165-04-24 06:00:00     88  
 9   10003700 220210 2165-04-24 06:00:00     14  
10   10003700 220045 2165-04-24 06:09:00     55  
# … with 23,679,048 more rows
…
       group_by(subject_id, itemid) %>%
      arrange (charttime, .by_group= TRUE) %>%
       slice_head(n=1) %>%
       ungroup() %>%
      # important to take out before pivot_wider or else multiple rows for an itemid woll be produced
       select(-intime,-outtime,-charttime) %>%
       pivot_wider(names_from = itemid, values_from=valuenum) %>%
      rename_at(
        vars(as.character(chart_tble$itemid)),
             ~str_to_lower(chart_tble$label)
      ) %>%
      rename(HR="heart rate") %>%
       print (width=Inf) 

# A tibble: 53,136 × 6
   subject_id    HR `non invasive blood pressure systolic`
        <dbl> <dbl>                                  <dbl>
 1   10000032    91                                     84
 2   10000980    77                                    150
 3   10001217    86                                    151
 4   10001725    55                                     73
 5   10001884    38                                    180
 6   10002013    80                                    104
 7   10002155    68                                    126
 8   10002223   100                                    123
 9   10002348    72                                    129
10   10002428   124                                     87
   `non invasive blood pressure mean` `respiratory rate`
                                <dbl>              <dbl>
 1                                 56                 24
 2                                 92                 23
 3                                104                 18
 4                                 59                 19
 5                                 46                 10
 6                                 77                 14
 7                                 78                 18
 8                                 80                 29
 9                                 85                 14
10                                 53                 25
   `temperature fahrenheit`
                      <dbl>
 1                     98.7
 2                     98  
 3                     98.5
 4                     97.7
 5                     98.1
 6                     97.2
 7                     95.9
 8                     98.6
 9                     97.9
10                    103. 
# … with 53,126 more rows
…
